<?xml version="1.0" encoding="utf-8"?>
<!-- Generator: Adobe Illustrator 21.1.0, SVG Export Plug-In . SVG Version: 6.00 Build 0)  -->
<svg version="1.1" id="Calque_1" xmlns="http://www.w3.org/2000/svg" xmlns:xlink="http://www.w3.org/1999/xlink" x="0px" y="0px"
	 viewBox="0 0 200 162.9" style="enable-background:new 0 0 200 162.9;" xml:space="preserve">
<style type="text/css">
	.st0{fill:#93C68F;}
</style>
<g>
	<path class="st0" d="M78.2,0.1l7.5,13.2c0.8,1.4,1.7,2.9,2.7,4.5c-3.9,2.3-7.7,4.7-11.5,6.9C64.2,32,52.7,40.9,43.5,52.5
		c-8.9,11.2-13,24.1-14.3,38.5c4.4,0,8.6-0.4,12.8,0.1c6.8,0.7,13.9,1.1,20.3,3.3c13.1,4.4,19.5,14.3,20.7,27.9
		c0.6,7.4-0.5,14.4-4.2,20.9c-7.8,13.6-20.5,19.7-37.3,17.5C19.7,158.1,8,147.2,2.8,124.4c-1.2-5.3-1.9-10.7-2.8-16V93
		c0.2-0.6,0.5-1.2,0.6-1.9c1-10,4-19.3,8.8-28.1c11.1-20.4,27-36.3,46.3-48.9C62.9,9.4,70.2,4.7,77.5,0C77.7,0.1,77.9,0.1,78.2,0.1
		L78.2,0.1z"/>
	<path class="st0" d="M189.4,0.1c3.5,5.8,6.9,11.6,10.6,17.8c-1.7,1-3.4,2.1-5.1,3c-13.4,7.8-26.3,16.1-36.8,27.9
		c-10.7,12-15.9,26-17.4,42.3c1.4,0,2.8-0.1,4.2,0c8.3,0.6,16.8,0.2,24.8,2.1c18.9,4.4,26.1,18.9,24.8,36.6
		c-1.3,16.9-15.3,30.5-31.9,31.3c-12.2,0.6-23.9-1.1-33.5-9.5c-8.7-7.6-12.6-17.9-15.1-28.8c-7.2-32.2,2.1-59.7,23.9-83.6
		c11-12,23.8-21.8,37.6-30.3c4.5-2.8,8.8-5.8,13.3-8.8L189.4,0.1L189.4,0.1z"/>
</g>
</svg>
